<?xml version="1.0" standalone="no"?>
<!DOCTYPE svg PUBLIC "-//W3C//DTD SVG 1.1//EN" "http://www.w3.org/Graphics/SVG/1.1/DTD/svg11.dtd">
<svg xmlns="http://www.w3.org/2000/svg">
<metadata>Copyright (C) 2021 by original authors @ fontello.com</metadata>
<defs>
<font id="fontello" horiz-adv-x="1000" >
<font-face font-family="fontello" font-weight="400" font-stretch="normal" units-per-em="1000" ascent="850" descent="-150" />
<missing-glyph horiz-adv-x="1000" />
<glyph glyph-name="adult" unicode="&#xe800;" d="M0-132l0 289q0 103 60 177t157 75l330 0q101-2 158-76t57-176l0-289q0-18-18-18l-105 0q-16 0-16 18l0 252q-6 27-27 24t-22-24l0-252q-2-18-19-18l-352 0q-17 0-17 18l0 252q-4 27-26 24t-23-24l0-252q0-18-18-18l-101 0q-18 0-18 18z m186 783q0 82 59 140t140 59q86-4 142-60t59-139q-2-84-61-143t-140-58q-84 2-142 60t-57 141z" horiz-adv-x="762" />

<glyph glyph-name="menu-outline" unicode="&#xe801;" d="M885 38l-729 0q-21 0-37-16t-15-37 15-36 37-15l729 0q21 0 37 15t16 36-16 37-37 16z m0 104q65 0 111-46t45-111-45-110-111-46l-729 0q-65 0-110 46t-46 110 46 111 110 46l729 0z m0 261l-729 0q-21 0-37-16t-15-37 15-37 37-15l729 0q21 0 37 15t16 37-16 37-37 16z m0 104q65 0 111-46t45-111-45-110-111-46l-729 0q-65 0-110 46t-46 110 46 111 110 46l729 0z m0 260l-729 0q-21 0-37-15t-15-37 15-37 37-15l729 0q21 0 37 15t16 37-16 37-37 15z m0 105q65 0 111-46t45-111-45-110-111-46l-729 0q-65 0-110 46t-46 110 46 111 110 46l729 0z" horiz-adv-x="1041" />

<glyph glyph-name="clipboard" unicode="&#xe802;" d="M0-150l0 904 225 0 0-64-161 0 0-774 579 0 0 774-161 0 0 64 225 0 0-904-707 0z m129 129l0 31 31 0 0-31-31 0z m0 121l0 31 31 0 0-31-31 0z m0 121l0 31 31 0 0-31-31 0z m0 121l0 32 31 0 0-32-31 0z m0 121l0 32 31 0 0-32-31 0z m0 96l0 94 129 0 0 97q0 41 27 71t69 29 69-30 28-70q0-56-2-97l129 0 0-94-449 0z m96-582l0 33 353 0 0-33-353 0z m0 121l0 33 353 0 0-33-353 0z m0 121l0 33 353 0 0-33-353 0z m0 121l0 34 353 0 0-34-353 0z m0 121l0 34 353 0 0-34-353 0z m97 260q0-14 9-22t23-9 22 9 9 22-9 24-22 9-23-9-9-24z" horiz-adv-x="707" />

<glyph glyph-name="logout" unicode="&#xe804;" d="M357 46q0-2 1-11t0-14-2-14-5-11-12-3h-178q-67 0-114 47t-47 114v392q0 67 47 114t114 47h178q8 0 13-5t5-13q0-2 1-11t0-15-2-13-5-11-12-3h-178q-37 0-63-26t-27-64v-392q0-37 27-63t63-27h174t6 0 7-2 4-3 4-5 1-8z m518 304q0-14-11-25l-303-304q-11-10-25-10t-25 10-11 25v161h-250q-14 0-25 11t-11 25v214q0 15 11 25t25 11h250v161q0 14 11 25t25 10 25-10l303-304q11-10 11-25z" horiz-adv-x="928.6" />

<glyph glyph-name="cog" unicode="&#xe805;" d="M571 350q0 59-41 101t-101 42-101-42-42-101 42-101 101-42 101 42 41 101z m286 61v-124q0-7-4-13t-11-7l-104-16q-10-30-21-51 19-27 59-77 6-6 6-13t-5-13q-15-21-55-61t-53-39q-7 0-14 5l-77 60q-25-13-51-21-9-76-16-104-4-16-20-16h-124q-8 0-14 5t-6 12l-16 103q-27 9-50 21l-79-60q-6-5-14-5-8 0-14 6-70 64-92 94-4 5-4 13 0 6 5 12 8 12 28 37t30 40q-15 28-23 55l-102 15q-7 1-11 7t-5 13v124q0 7 5 13t10 7l104 16q8 25 22 51-23 32-60 77-6 7-6 14 0 5 5 12 15 20 55 60t53 40q7 0 15-5l77-60q24 13 50 21 9 76 17 104 3 16 20 16h124q7 0 13-5t7-12l15-103q28-9 51-20l79 59q5 5 13 5 7 0 14-5 72-67 92-95 4-5 4-12 0-7-4-13-9-12-29-37t-30-40q15-28 23-54l102-16q7-1 12-7t4-13z" horiz-adv-x="857.1" />

<glyph glyph-name="commerical-building" unicode="&#xe811;" d="M50 800c-28 0-50-22-50-50 0 0 0-533 0-800 0-25 25-50 50-50 83 0 250 0 250 0l0 150c0 28 26 50 50 50l50 0c24 0 50-22 50-50 0-50 0-100 0-150 0 0 167 0 250 0 25 0 50 25 50 50 0 267 0 800 0 800 0 28-22 50-50 50z m100-150l150 0 0-100-150 0z m300 0l150 0 0-100-150 0z m-300-300l150 0 0-100-150 0z m300 0l150 0 0-100-150 0z" horiz-adv-x="750" />

<glyph glyph-name="warehouse" unicode="&#xe840;" d="M475 700l-475-275 100 0 0-400c0-25 22-50 50-50l150 0 0 250c0 28 22 50 50 50l350 0c28 0 49-22 50-50l0-250 150 0c28 0 50 22 50 50l0 400 100 0-475 275c-21 12-42 25-50 25-8 0-28-12-50-25z m-125-475l0-50 350 0 0 50z m0-100l0-50 350 0 0 50z m0-100l0-50 350 0 0 50z" horiz-adv-x="1050" />

<glyph glyph-name="money" unicode="&#xf0d6;" d="M429 207h214v54h-72v250h-63l-83-77 43-44q24 20 31 31h1v-160h-71v-54z m285 143q0-39-11-79t-34-75-56-56-77-22-77 22-57 56-33 75-12 79 12 79 33 75 57 56 77 22 77-22 56-56 34-75 11-79z m286-143v286q-59 0-101 42t-42 101h-643q0-59-42-101t-101-42v-286q60 0 101-42t42-101h643q0 59 42 101t101 42z m71 464v-642q0-15-10-25t-25-11h-1000q-15 0-25 11t-11 25v642q0 15 11 26t25 10h1000q14 0 25-10t10-26z" horiz-adv-x="1071.4" />
</font>
</defs>
</svg>