<svg width="115" height="68" viewBox="0 0 115 68" xmlns="http://www.w3.org/2000/svg">
<path d="M113.182 37.182C114.939 35.4246 114.939 32.5754 113.182 30.818L84.5442 2.18019C82.7868 0.422836 79.9376 0.422836 78.1802 2.18019C76.4228 3.93755 76.4228 6.7868 78.1802 8.54416L103.636 34L78.1802 59.4558C76.4228 61.2132 76.4228 64.0624 78.1802 65.8198C79.9376 67.5772 82.7868 67.5772 84.5442 65.8198L113.182 37.182ZM0 38.5H110V29.5H0L0 38.5Z" fill="#818181"/>
</svg>
